CircuitLab/lab_data/L5_data2.csv

X,CH1,CH2,Start,Increment,
Sequence,Volt,Volt,-3.000000e-01,5.000000e-04
0,4.96e+00,5.04e+00,
1,5.04e+00,4.96e+00,
2,5.04e+00,5.04e+00,
3,4.96e+00,4.96e+00,
4,4.96e+00,5.04e+00,
5,5.04e+00,4.96e+00,
6,5.04e+00,4.96e+00,
7,4.96e+00,5.04e+00,
8,4.96e+00,4.96e+00,
9,5.04e+00,5.04e+00,
10,5.04e+00,4.96e+00,
11,4.96e+00,5.04e+00,
12,4.96e+00,4.96e+00,
13,5.04e+00,5.04e+00,
14,5.04e+00,4.96e+00,
15,4.96e+00,5.04e+00,
16,5.04e+00,4.96e+00,
17,4.96e+00,5.04e+00,
18,4.96e+00,5.04e+00,
19,5.04e+00,4.96e+00,
20,4.96e+00,4.96e+00,
21,5.04e+00,5.04e+00,
22,4.96e+00,5.04e+00,
23,5.04e+00,4.96e+00,
24,4.96e+00,5.04e+00,
25,5.04e+00,4.96e+00,
26,4.96e+00,5.04e+00,
27,5.04e+00,4.96e+00,
28,4.96e+00,4.96e+00,
29,5.04e+00,5.04e+00,
30,5.04e+00,5.04e+00,
31,4.96e+00,4.96e+00,
32,4.96e+00,5.04e+00,
33,5.04e+00,4.96e+00,
34,5.04e+00,4.96e+00,
35,4.96e+00,5.04e+00,
36,4.96e+00,5.04e+00,
37,5.04e+00,4.96e+00,
38,5.04e+00,5.04e+00,
39,4.96e+00,4.96e+00,
40,5.04e+00,5.04e+00,
41,4.96e+00,4.96e+00,
42,5.04e+00,5.04e+00,
43,4.96e+00,4.96e+00,
44,4.96e+00,4.96e+00,
45,5.04e+00,5.04e+00,
46,5.04e+00,5.04e+00,
47,4.96e+00,4.96e+00,
48,5.04e+00,5.04e+00,
49,4.96e+00,4.96e+00,
50,5.04e+00,5.04e+00,
51,4.96e+00,4.96e+00,
52,4.96e+00,5.04e+00,
53,5.04e+00,4.96e+00,
54,5.04e+00,4.96e+00,
55,4.96e+00,5.04e+00,
56,4.96e+00,5.04e+00,
57,5.04e+00,4.96e+00,
58,4.96e+00,5.04e+00,
59,5.04e+00,4.96e+00,
60,5.04e+00,4.96e+00,
61,4.96e+00,5.04e+00,
62,4.96e+00,5.04e+00,
63,5.04e+00,4.96e+00,
64,5.04e+00,4.96e+00,
65,4.96e+00,5.04e+00,
66,5.04e+00,4.96e+00,
67,4.96e+00,5.04e+00,
68,5.04e+00,4.96e+00,
69,4.96e+00,5.04e+00,
70,5.04e+00,4.96e+00,
71,4.96e+00,5.04e+00,
72,5.04e+00,5.04e+00,
73,4.96e+00,4.96e+00,
74,5.04e+00,5.04e+00,
75,4.96e+00,4.96e+00,
76,5.04e+00,4.96e+00,
77,4.96e+00,5.04e+00,
78,5.04e+00,5.04e+00,
79,4.96e+00,4.96e+00,
80,5.04e+00,5.04e+00,
81,4.96e+00,4.96e+00,
82,5.04e+00,4.96e+00,
83,4.96e+00,5.04e+00,
84,4.96e+00,4.96e+00,
85,5.04e+00,5.04e+00,
86,4.96e+00,4.96e+00,
87,5.04e+00,5.04e+00,
88,5.04e+00,5.04e+00,
89,4.96e+00,4.96e+00,
90,5.04e+00,5.04e+00,
91,4.96e+00,4.96e+00,
92,4.96e+00,5.04e+00,
93,5.04e+00,4.96e+00,
94,5.04e+00,4.96e+00,
95,4.96e+00,5.04e+00,
96,4.96e+00,5.04e+00,
97,5.04e+00,4.96e+00,
98,4.96e+00,5.04e+00,
99,5.04e+00,4.96e+00,
100,4.96e+00,5.04e+00,
101,5.04e+00,4.96e+00,
102,5.04e+00,4.96e+00,
103,4.96e+00,5.04e+00,
104,4.96e+00,5.04e+00,
105,5.04e+00,4.96e+00,
106,4.96e+00,4.96e+00,
107,5.04e+00,5.04e+00,
108,4.96e+00,4.96e+00,
109,5.04e+00,5.04e+00,
110,5.04e+00,5.04e+00,
111,4.96e+00,4.96e+00,
112,5.04e+00,5.04e+00,
113,4.96e+00,4.96e+00,
114,4.96e+00,5.04e+00,
115,5.04e+00,4.96e+00,
116,4.96e+00,5.04e+00,
117,5.04e+00,4.96e+00,
118,5.04e+00,5.04e+00,
119,4.96e+00,4.96e+00,
120,4.96e+00,5.04e+00,
121,5.04e+00,4.96e+00,
122,5.04e+00,5.04e+00,
123,4.96e+00,4.96e+00,
124,5.04e+00,5.04e+00,
125,4.96e+00,4.96e+00,
126,5.04e+00,5.04e+00,
127,4.96e+00,4.96e+00,
128,4.96e+00,5.04e+00,
129,5.04e+00,4.96e+00,
130,5.04e+00,4.96e+00,
131,4.96e+00,5.04e+00,
132,4.96e+00,5.04e+00,
133,5.04e+00,4.96e+00,
134,5.04e+00,4.96e+00,
135,4.96e+00,5.04e+00,
136,4.96e+00,4.96e+00,
137,5.04e+00,5.04e+00,
138,4.96e+00,4.96e+00,
139,5.04e+00,5.04e+00,
140,4.96e+00,4.96e+00,
141,5.04e+00,5.04e+00,
142,5.04e+00,5.04e+00,
143,4.96e+00,4.96e+00,
144,5.04e+00,4.96e+00,
145,4.96e+00,5.04e+00,
146,4.96e+00,5.04e+00,
147,5.04e+00,4.96e+00,
148,5.04e+00,5.04e+00,
149,4.96e+00,4.96e+00,
150,5.04e+00,4.96e+00,
151,4.96e+00,5.04e+00,
152,4.96e+00,5.04e+00,
153,5.04e+00,4.96e+00,
154,4.96e+00,4.96e+00,
155,5.04e+00,5.04e+00,
156,5.04e+00,4.96e+00,
157,4.96e+00,5.04e+00,
158,5.04e+00,5.04e+00,
159,4.96e+00,4.96e+00,
160,5.04e+00,5.04e+00,
161,4.96e+00,4.96e+00,
162,5.04e+00,5.04e+00,
163,4.96e+00,4.96e+00,
164,5.04e+00,5.04e+00,
165,4.96e+00,4.96e+00,
166,5.04e+00,5.04e+00,
167,4.96e+00,4.96e+00,
168,5.04e+00,4.96e+00,
169,4.96e+00,5.04e+00,
170,5.04e+00,5.04e+00,
171,4.96e+00,4.96e+00,
172,4.96e+00,4.96e+00,
173,5.04e+00,5.04e+00,
174,4.96e+00,5.04e+00,
175,5.04e+00,4.96e+00,
176,5.04e+00,4.96e+00,
177,4.96e+00,5.04e+00,
178,5.04e+00,5.04e+00,
179,4.96e+00,4.96e+00,
180,4.96e+00,4.96e+00,
181,5.04e+00,5.04e+00,
182,4.96e+00,5.04e+00,
183,5.04e+00,4.96e+00,
184,4.96e+00,5.04e+00,
185,5.04e+00,4.96e+00,
186,5.04e+00,4.96e+00,
187,4.96e+00,5.04e+00,
188,4.96e+00,4.96e+00,
189,5.04e+00,5.04e+00,
190,5.04e+00,4.96e+00,
191,4.96e+00,5.04e+00,
192,5.04e+00,5.04e+00,
193,4.96e+00,4.96e+00,
194,5.04e+00,4.96e+00,
195,4.96e+00,5.04e+00,
196,4.96e+00,5.04e+00,
197,5.04e+00,4.96e+00,
198,5.04e+00,5.04e+00,
199,4.96e+00,4.96e+00,
200,5.04e+00,4.96e+00,
201,4.96e+00,5.04e+00,
202,4.96e+00,5.04e+00,
203,5.04e+00,4.96e+00,
204,5.04e+00,4.96e+00,
205,4.96e+00,5.04e+00,
206,5.04e+00,5.04e+00,
207,4.96e+00,4.96e+00,
208,5.04e+00,5.04e+00,
209,4.96e+00,4.96e+00,
210,4.96e+00,5.04e+00,
211,5.04e+00,4.96e+00,
212,5.04e+00,4.96e+00,
213,4.96e+00,5.04e+00,
214,4.96e+00,5.04e+00,
215,5.04e+00,4.96e+00,
216,5.04e+00,5.04e+00,
217,4.96e+00,4.96e+00,
218,5.04e+00,5.04e+00,
219,4.96e+00,4.96e+00,
220,5.04e+00,4.96e+00,
221,4.96e+00,5.04e+00,
222,4.96e+00,5.04e+00,
223,5.04e+00,4.96e+00,
224,5.04e+00,4.96e+00,
225,4.96e+00,5.04e+00,
226,5.04e+00,4.96e+00,
227,4.96e+00,5.04e+00,
228,4.96e+00,5.04e+00,
229,5.04e+00,4.96e+00,
230,5.04e+00,5.04e+00,
231,4.96e+00,4.96e+00,
232,4.96e+00,4.96e+00,
233,5.04e+00,5.04e+00,
234,4.96e+00,4.96e+00,
235,5.04e+00,5.04e+00,
236,4.96e+00,5.04e+00,
237,5.04e+00,4.96e+00,
238,4.96e+00,4.96e+00,
239,5.04e+00,5.04e+00,
240,5.04e+00,5.04e+00,
241,4.96e+00,4.96e+00,
242,5.04e+00,5.04e+00,
243,4.96e+00,4.96e+00,
244,4.96e+00,5.04e+00,
245,5.04e+00,4.96e+00,
246,5.04e+00,5.04e+00,
247,4.96e+00,4.96e+00,
248,4.96e+00,5.04e+00,
249,5.04e+00,4.96e+00,
250,4.96e+00,5.04e+00,
251,5.04e+00,4.96e+00,
252,5.04e+00,4.96e+00,
253,4.96e+00,5.04e+00,
254,5.04e+00,4.96e+00,
255,4.96e+00,5.04e+00,
256,5.04e+00,5.04e+00,
257,4.96e+00,4.96e+00,
258,5.04e+00,5.04e+00,
259,4.96e+00,4.96e+00,
260,5.04e+00,4.96e+00,
261,4.96e+00,5.04e+00,
262,4.96e+00,5.04e+00,
263,5.04e+00,4.96e+00,
264,5.04e+00,4.96e+00,
265,4.96e+00,5.04e+00,
266,5.04e+00,4.96e+00,
267,4.96e+00,5.04e+00,
268,5.04e+00,5.04e+00,
269,4.96e+00,4.96e+00,
270,4.96e+00,5.04e+00,
271,5.04e+00,4.96e+00,
272,5.04e+00,4.96e+00,
273,4.96e+00,5.04e+00,
274,4.96e+00,4.96e+00,
275,5.04e+00,5.04e+00,
276,4.96e+00,5.04e+00,
277,5.04e+00,4.96e+00,
278,5.04e+00,4.96e+00,
279,4.96e+00,5.04e+00,
280,5.04e+00,5.04e+00,
281,4.96e+00,4.96e+00,
282,5.04e+00,4.96e+00,
283,4.96e+00,5.04e+00,
284,5.04e+00,4.96e+00,
285,4.96e+00,5.04e+00,
286,5.04e+00,5.04e+00,
287,4.96e+00,4.96e+00,
288,5.04e+00,4.96e+00,
289,4.96e+00,5.04e+00,
290,5.04e+00,5.04e+00,
291,4.96e+00,4.96e+00,
292,5.04e+00,5.04e+00,
293,4.96e+00,4.96e+00,
294,4.96e+00,5.04e+00,
295,5.04e+00,4.96e+00,
296,5.04e+00,4.96e+00,
297,4.96e+00,5.04e+00,
298,5.04e+00,5.04e+00,
299,4.96e+00,4.96e+00,
300,5.04e+00,4.96e+00,
301,4.96e+00,5.04e+00,
302,4.96e+00,5.04e+00,
303,5.04e+00,4.96e+00,
304,4.96e+00,4.96e+00,
305,5.04e+00,5.04e+00,
306,4.96e+00,4.96e+00,
307,5.04e+00,5.04e+00,
308,4.96e+00,5.04e+00,
309,5.04e+00,4.96e+00,
310,5.04e+00,5.04e+00,
311,4.96e+00,4.96e+00,
312,4.96e+00,5.04e+00,
313,5.04e+00,4.96e+00,
314,5.04e+00,4.96e+00,
315,4.96e+00,5.04e+00,
316,5.04e+00,5.04e+00,
317,4.96e+00,4.96e+00,
318,4.96e+00,5.04e+00,
319,5.04e+00,4.96e+00,
320,5.04e+00,4.96e+00,
321,4.96e+00,5.04e+00,
322,4.96e+00,4.96e+00,
323,5.04e+00,5.04e+00,
324,4.96e+00,5.04e+00,
325,5.04e+00,4.96e+00,
326,5.04e+00,5.04e+00,
327,4.96e+00,4.96e+00,
328,5.04e+00,5.04e+00,
329,4.96e+00,4.96e+00,
330,5.04e+00,5.04e+00,
331,4.96e+00,4.96e+00,
332,4.96e+00,5.04e+00,
333,5.04e+00,4.96e+00,
334,5.04e+00,5.04e+00,
335,4.96e+00,4.96e+00,
336,4.96e+00,5.04e+00,
337,5.04e+00,4.96e+00,
338,5.04e+00,5.04e+00,
339,4.96e+00,4.96e+00,
340,4.96e+00,4.96e+00,
341,5.04e+00,5.04e+00,
342,5.04e+00,4.96e+00,
343,4.96e+00,5.04e+00,
344,4.96e+00,5.04e+00,
345,5.04e+00,4.96e+00,
346,5.04e+00,5.04e+00,
347,4.96e+00,4.96e+00,
348,4.96e+00,4.96e+00,
349,5.04e+00,5.04e+00,
350,5.04e+00,5.04e+00,
351,4.96e+00,4.96e+00,
352,5.04e+00,5.04e+00,
353,4.96e+00,4.96e+00,
354,4.96e+00,5.04e+00,
355,5.04e+00,4.96e+00,
356,4.96e+00,4.96e+00,
357,5.04e+00,5.04e+00,
358,4.96e+00,4.96e+00,
359,5.04e+00,5.04e+00,
360,5.04e+00,5.04e+00,
361,4.96e+00,4.96e+00,
362,4.96e+00,5.04e+00,
363,5.04e+00,4.96e+00,
364,5.04e+00,4.96e+00,
365,4.96e+00,5.04e+00,
366,5.04e+00,5.04e+00,
367,4.96e+00,4.96e+00,
368,4.96e+00,5.04e+00,
369,5.04e+00,4.96e+00,
370,5.04e+00,4.96e+00,
371,4.96e+00,5.04e+00,
372,5.04e+00,5.04e+00,
373,4.96e+00,4.96e+00,
374,5.04e+00,5.04e+00,
375,4.96e+00,4.96e+00,
376,4.96e+00,5.04e+00,
377,5.04e+00,4.96e+00,
378,4.96e+00,4.96e+00,
379,5.04e+00,5.04e+00,
380,4.96e+00,5.04e+00,
381,5.04e+00,4.96e+00,
382,5.04e+00,4.96e+00,
383,4.96e+00,5.04e+00,
384,5.04e+00,5.04e+00,
385,4.96e+00,4.96e+00,
386,5.04e+00,5.04e+00,
387,4.96e+00,4.96e+00,
388,4.96e+00,4.96e+00,
389,5.04e+00,5.04e+00,
390,5.04e+00,5.04e+00,
391,4.96e+00,4.96e+00,
392,4.96e+00,4.96e+00,
393,5.04e+00,5.04e+00,
394,4.96e+00,4.96e+00,
395,5.04e+00,5.04e+00,
396,5.04e+00,5.04e+00,
397,4.96e+00,4.96e+00,
398,5.04e+00,5.04e+00,
399,4.96e+00,4.96e+00,
400,4.96e+00,4.96e+00,
401,5.04e+00,5.04e+00,
402,4.96e+00,4.96e+00,
403,5.04e+00,5.04e+00,
404,5.04e+00,4.96e+00,
405,4.96e+00,5.04e+00,
406,4.96e+00,4.96e+00,
407,5.04e+00,5.04e+00,
408,4.96e+00,5.04e+00,
409,5.04e+00,4.96e+00,
410,4.96e+00,5.04e+00,
411,5.04e+00,4.96e+00,
412,4.96e+00,4.96e+00,
413,5.04e+00,5.04e+00,
414,4.96e+00,5.04e+00,
415,5.04e+00,4.96e+00,
416,4.96e+00,4.96e+00,
417,5.04e+00,5.04e+00,
418,5.04e+00,4.96e+00,
419,4.96e+00,5.04e+00,
420,4.96e+00,5.04e+00,
421,5.04e+00,4.96e+00,
422,4.96e+00,5.04e+00,
423,5.04e+00,4.96e+00,
424,5.04e+00,5.04e+00,
425,4.96e+00,4.96e+00,
426,5.04e+00,5.04e+00,
427,4.96e+00,4.96e+00,
428,4.96e+00,5.04e+00,
429,5.04e+00,4.96e+00,
430,5.04e+00,5.04e+00,
431,4.96e+00,4.96e+00,
432,4.96e+00,5.04e+00,
433,5.04e+00,4.96e+00,
434,4.96e+00,4.96e+00,
435,5.04e+00,5.04e+00,
436,5.04e+00,4.96e+00,
437,4.96e+00,5.04e+00,
438,5.04e+00,5.04e+00,
439,4.96e+00,4.96e+00,
440,4.96e+00,5.04e+00,
441,5.04e+00,4.96e+00,
442,4.96e+00,4.96e+00,
443,5.04e+00,5.04e+00,
444,5.04e+00,4.96e+00,
445,4.96e+00,5.04e+00,
446,4.96e+00,5.04e+00,
447,5.04e+00,4.96e+00,
448,4.96e+00,5.04e+00,
449,5.04e+00,4.96e+00,
450,5.04e+00,5.04e+00,
451,4.96e+00,4.96e+00,
452,4.96e+00,5.04e+00,
453,5.04e+00,4.96e+00,
454,4.96e+00,5.04e+00,
455,5.04e+00,4.96e+00,
456,4.96e+00,5.04e+00,
457,5.04e+00,4.96e+00,
458,5.04e+00,5.04e+00,
459,4.96e+00,4.96e+00,
460,5.04e+00,5.04e+00,
461,4.96e+00,4.96e+00,
462,5.04e+00,4.96e+00,
463,4.96e+00,5.04e+00,
464,4.96e+00,5.04e+00,
465,5.04e+00,4.96e+00,
466,5.04e+00,5.04e+00,
467,4.96e+00,4.96e+00,
468,4.96e+00,4.96e+00,
469,5.04e+00,5.04e+00,
470,5.04e+00,4.96e+00,
471,4.96e+00,5.04e+00,
472,4.96e+00,4.96e+00,
473,5.04e+00,5.04e+00,
474,4.96e+00,5.04e+00,
475,5.04e+00,4.96e+00,
476,4.96e+00,5.04e+00,
477,5.04e+00,4.96e+00,
478,5.04e+00,5.04e+00,
479,4.96e+00,4.96e+00,
480,5.04e+00,4.96e+00,
481,4.96e+00,5.04e+00,
482,4.96e+00,5.04e+00,
483,5.04e+00,4.96e+00,
484,5.04e+00,5.04e+00,
485,4.96e+00,4.96e+00,
486,5.04e+00,4.96e+00,
487,4.96e+00,5.04e+00,
488,5.04e+00,5.04e+00,
489,4.96e+00,4.96e+00,
490,4.96e+00,4.96e+00,
491,5.04e+00,5.04e+00,
492,5.04e+00,4.96e+00,
493,4.96e+00,5.04e+00,
494,5.04e+00,5.04e+00,
495,4.96e+00,4.96e+00,
496,5.04e+00,5.04e+00,
497,4.96e+00,4.96e+00,
498,5.04e+00,5.04e+00,
499,4.96e+00,4.96e+00,
500,5.04e+00,4.96e+00,
501,4.96e+00,5.04e+00,
502,5.04e+00,5.04e+00,
503,4.96e+00,4.96e+00,
504,5.04e+00,4.96e+00,
505,4.96e+00,5.04e+00,
506,5.04e+00,5.04e+00,
507,4.96e+00,4.96e+00,
508,4.96e+00,4.96e+00,
509,5.04e+00,5.04e+00,
510,4.96e+00,5.04e+00,
511,5.04e+00,4.96e+00,
512,5.04e+00,4.96e+00,
513,4.96e+00,5.04e+00,
514,5.04e+00,5.04e+00,
515,4.96e+00,4.96e+00,
516,4.96e+00,5.04e+00,
517,5.04e+00,4.96e+00,
518,4.96e+00,4.96e+00,
519,5.04e+00,5.04e+00,
520,5.04e+00,5.04e+00,
521,4.96e+00,4.96e+00,
522,5.04e+00,4.96e+00,
523,4.96e+00,5.04e+00,
524,4.96e+00,4.96e+00,
525,5.04e+00,5.04e+00,
526,4.96e+00,4.96e+00,
527,5.04e+00,5.04e+00,
528,4.96e+00,5.04e+00,
529,5.04e+00,4.96e+00,
530,5.04e+00,4.96e+00,
531,4.96e+00,5.04e+00,
532,5.04e+00,5.04e+00,
533,4.96e+00,4.96e+00,
534,5.04e+00,5.04e+00,
535,4.96e+00,4.96e+00,
536,5.04e+00,4.96e+00,
537,4.96e+00,5.04e+00,
538,4.96e+00,5.04e+00,
539,5.04e+00,4.96e+00,
540,5.04e+00,5.04e+00,
541,4.96e+00,4.96e+00,
542,5.04e+00,5.04e+00,
543,4.96e+00,4.96e+00,
544,5.04e+00,4.96e+00,
545,4.96e+00,5.04e+00,
546,4.96e+00,5.04e+00,
547,5.04e+00,4.96e+00,
548,5.04e+00,5.04e+00,
549,4.96e+00,4.96e+00,
550,4.96e+00,5.04e+00,
551,5.04e+00,4.96e+00,
552,5.04e+00,5.04e+00,
553,4.96e+00,4.96e+00,
554,5.04e+00,5.04e+00,
555,4.96e+00,4.96e+00,
556,4.96e+00,4.96e+00,
557,5.04e+00,5.04e+00,
558,5.04e+00,4.96e+00,
559,4.96e+00,5.04e+00,
560,4.96e+00,4.96e+00,
561,5.04e+00,5.04e+00,
562,4.96e+00,4.96e+00,
563,5.04e+00,5.04e+00,
564,5.04e+00,5.04e+00,
565,4.96e+00,4.96e+00,
566,5.04e+00,5.04e+00,
567,4.96e+00,4.96e+00,
568,4.96e+00,4.96e+00,
569,5.04e+00,5.04e+00,
570,4.96e+00,4.96e+00,
571,5.04e+00,5.04e+00,
572,4.96e+00,5.04e+00,
573,5.04e+00,4.96e+00,
574,5.04e+00,4.96e+00,
575,4.96e+00,5.04e+00,
576,4.96e+00,5.04e+00,
577,5.04e+00,4.96e+00,
578,4.96e+00,4.96e+00,
579,5.04e+00,5.04e+00,
580,4.96e+00,4.96e+00,
581,5.04e+00,5.04e+00,
582,5.04e+00,4.96e+00,
583,4.96e+00,5.04e+00,
584,4.96e+00,4.96e+00,
585,5.04e+00,5.04e+00,
586,4.96e+00,5.04e+00,
587,5.04e+00,4.96e+00,
588,5.04e+00,4.96e+00,
589,4.96e+00,5.04e+00,
590,5.04e+00,4.96e+00,
591,4.96e+00,5.04e+00,
592,5.04e+00,5.04e+00,
593,4.96e+00,4.96e+00,
594,5.04e+00,4.96e+00,
595,2.08e+00,5.04e+00,
596,2.16e+00,4.96e+00,
597,8.80e-01,5.04e+00,
598,1.04e+00,4.96e+00,
599,4.00e-01,5.04e+00,
600,4.80e-01,4.96e+00,
601,1.60e-01,5.04e+00,
602,2.40e-01,4.96e+00,
603,8.00e-02,5.04e+00,
604,8.00e-02,5.04e+00,
605,1.60e-01,4.96e+00,
606,1.60e-01,5.04e+00,
607,0.00e+00,4.96e+00,
608,0.00e+00,4.96e+00,
609,1.60e-01,5.04e+00,
610,0.00e+00,4.96e+00,
611,8.00e-02,5.04e+00,
612,8.00e-02,5.04e+00,
613,0.00e+00,4.96e+00,
614,8.00e-02,4.96e+00,
615,0.00e+00,5.04e+00,
616,0.00e+00,4.96e+00,
617,1.60e-01,5.04e+00,
618,0.00e+00,5.04e+00,
619,1.60e-01,4.96e+00,
620,1.60e-01,4.96e+00,
621,0.00e+00,5.04e+00,
622,1.60e-01,4.96e+00,
623,0.00e+00,5.04e+00,
624,1.60e-01,4.96e+00,
625,0.00e+00,5.04e+00,
626,1.60e-01,5.04e+00,
627,0.00e+00,4.96e+00,
628,1.60e-01,5.04e+00,
629,0.00e+00,4.96e+00,
630,0.00e+00,5.04e+00,
631,1.60e-01,4.96e+00,
632,0.00e+00,5.04e+00,
633,1.60e-01,4.96e+00,
634,1.60e-01,4.88e+00,
635,0.00e+00,1.92e+00,
636,1.60e-01,1.92e+00,
637,0.00e+00,8.00e-01,
638,0.00e+00,8.00e-01,
639,1.60e-01,3.20e-01,
640,0.00e+00,4.00e-01,
641,1.60e-01,1.60e-01,
642,1.60e-01,2.40e-01,
643,0.00e+00,8.00e-02,
644,0.00e+00,2.40e-01,
645,1.12e+00,8.00e-02,
646,1.12e+00,1.60e-01,
647,2.56e+00,8.00e-02,
648,2.48e+00,1.60e-01,
649,3.44e+00,8.00e-02,
650,3.36e+00,8.00e-02,
651,4.00e+00,1.60e-01,
652,3.92e+00,8.00e-02,
653,4.32e+00,8.80e-01,
654,4.32e+00,8.00e-01,
655,4.64e+00,2.48e+00,
656,4.56e+00,2.48e+00,
657,4.80e+00,3.52e+00,
658,4.64e+00,3.44e+00,
659,4.88e+00,4.08e+00,
660,4.80e+00,4.08e+00,
661,4.96e+00,4.48e+00,
662,4.80e+00,4.40e+00,
663,4.96e+00,4.72e+00,
664,4.96e+00,4.64e+00,
665,4.88e+00,4.88e+00,
666,4.88e+00,4.88e+00,
667,5.04e+00,4.72e+00,
668,4.88e+00,4.80e+00,
669,5.04e+00,4.96e+00,
670,4.88e+00,4.96e+00,
671,5.04e+00,4.88e+00,
672,5.04e+00,4.88e+00,
673,4.88e+00,5.04e+00,
674,5.04e+00,4.88e+00,
675,4.96e+00,5.04e+00,
676,4.96e+00,5.04e+00,
677,5.04e+00,4.88e+00,
678,5.04e+00,4.96e+00,
679,4.96e+00,5.04e+00,
680,4.96e+00,5.04e+00,
681,5.04e+00,4.96e+00,
682,5.04e+00,5.04e+00,
683,4.96e+00,4.96e+00,
684,5.04e+00,4.96e+00,
685,4.96e+00,5.04e+00,
686,4.96e+00,5.04e+00,
687,5.04e+00,4.96e+00,
688,5.04e+00,5.04e+00,
689,4.96e+00,4.96e+00,
690,5.04e+00,5.04e+00,
691,4.96e+00,4.96e+00,
692,5.04e+00,4.96e+00,
693,4.96e+00,5.04e+00,
694,5.04e+00,4.96e+00,
695,4.96e+00,5.04e+00,
696,4.96e+00,4.96e+00,
697,5.04e+00,5.04e+00,
698,5.04e+00,5.04e+00,
699,4.96e+00,4.96e+00,
700,5.04e+00,5.04e+00,
701,4.96e+00,4.96e+00,
702,5.04e+00,5.04e+00,
703,4.96e+00,4.96e+00,
704,4.96e+00,5.04e+00,
705,5.04e+00,4.96e+00,
706,5.04e+00,4.96e+00,
707,4.96e+00,5.04e+00,
708,5.04e+00,5.04e+00,
709,4.96e+00,4.96e+00,
710,5.04e+00,4.96e+00,
711,4.96e+00,5.04e+00,
712,4.96e+00,4.96e+00,
713,5.04e+00,5.04e+00,
714,4.96e+00,5.04e+00,
715,5.04e+00,4.96e+00,
716,5.04e+00,4.96e+00,
717,4.96e+00,5.04e+00,
718,4.96e+00,5.04e+00,
719,5.04e+00,4.96e+00,
720,5.04e+00,5.04e+00,
721,4.96e+00,4.96e+00,
722,5.04e+00,5.04e+00,
723,4.96e+00,4.96e+00,
724,4.96e+00,4.96e+00,
725,5.04e+00,5.04e+00,
726,4.96e+00,5.04e+00,
727,5.04e+00,4.96e+00,
728,5.04e+00,4.96e+00,
729,4.96e+00,5.04e+00,
730,5.04e+00,4.96e+00,
731,4.96e+00,5.04e+00,
732,4.96e+00,5.04e+00,
733,5.04e+00,4.96e+00,
734,4.96e+00,5.04e+00,
735,5.04e+00,4.96e+00,
736,5.04e+00,4.96e+00,
737,4.96e+00,5.04e+00,
738,4.96e+00,4.96e+00,
739,5.04e+00,5.04e+00,
740,5.04e+00,4.96e+00,
741,4.96e+00,5.04e+00,
742,4.96e+00,5.04e+00,
743,5.04e+00,4.96e+00,
744,4.96e+00,4.96e+00,
745,5.04e+00,5.04e+00,
746,4.96e+00,4.96e+00,
747,5.04e+00,5.04e+00,
748,4.96e+00,4.96e+00,
749,5.04e+00,5.04e+00,
750,4.96e+00,4.96e+00,
751,5.04e+00,5.04e+00,
752,4.96e+00,4.96e+00,
753,5.04e+00,5.04e+00,
754,5.04e+00,5.04e+00,
755,4.96e+00,4.96e+00,
756,4.96e+00,4.96e+00,
757,5.04e+00,5.04e+00,
758,4.96e+00,5.04e+00,
759,5.04e+00,4.96e+00,
760,5.04e+00,5.04e+00,
761,4.96e+00,4.96e+00,
762,4.96e+00,5.04e+00,
763,5.04e+00,4.96e+00,
764,4.96e+00,5.04e+00,
765,5.04e+00,4.96e+00,
766,4.96e+00,5.04e+00,
767,5.04e+00,4.96e+00,
768,4.96e+00,5.04e+00,
769,5.04e+00,4.96e+00,
770,5.04e+00,4.96e+00,
771,4.96e+00,5.04e+00,
772,5.04e+00,4.96e+00,
773,4.96e+00,5.04e+00,
774,4.96e+00,5.04e+00,
775,5.04e+00,4.96e+00,
776,5.04e+00,4.96e+00,
777,4.96e+00,5.04e+00,
778,5.04e+00,4.96e+00,
779,4.96e+00,5.04e+00,
780,5.04e+00,5.04e+00,
781,4.96e+00,4.96e+00,
782,4.96e+00,5.04e+00,
783,5.04e+00,4.96e+00,
784,4.96e+00,5.04e+00,
785,5.04e+00,4.96e+00,
786,5.04e+00,5.04e+00,
787,4.96e+00,4.96e+00,
788,4.96e+00,4.96e+00,
789,5.04e+00,5.04e+00,
790,4.96e+00,4.96e+00,
791,5.04e+00,5.04e+00,
792,4.96e+00,4.96e+00,
793,5.04e+00,5.04e+00,
794,5.04e+00,4.96e+00,
795,4.96e+00,5.04e+00,
796,5.04e+00,5.04e+00,
797,3.60e+00,4.96e+00,
798,3.60e+00,5.04e+00,
799,1.52e+00,4.96e+00,
800,1.60e+00,5.04e+00,
801,7.20e-01,4.96e+00,
802,8.00e-01,5.04e+00,
803,3.20e-01,4.96e+00,
804,4.00e-01,4.96e+00,
805,1.60e-01,5.04e+00,
806,2.40e-01,4.96e+00,
807,8.00e-02,5.04e+00,
808,8.00e-02,4.96e+00,
809,1.60e-01,5.04e+00,
810,1.60e-01,5.04e+00,
811,0.00e+00,4.96e+00,
812,0.00e+00,5.04e+00,
813,1.60e-01,4.96e+00,
814,8.00e-02,5.04e+00,
815,0.00e+00,4.96e+00,
816,0.00e+00,4.96e+00,
817,1.60e-01,5.04e+00,
818,0.00e+00,4.96e+00,
819,1.60e-01,5.04e+00,
820,1.60e-01,5.04e+00,
821,0.00e+00,4.96e+00,
822,1.60e-01,4.96e+00,
823,0.00e+00,5.04e+00,
824,1.60e-01,4.96e+00,
825,0.00e+00,5.04e+00,
826,0.00e+00,4.96e+00,
827,1.60e-01,5.04e+00,
828,1.60e-01,5.04e+00,
829,0.00e+00,2.08e+00,
830,1.60e-01,2.24e+00,
831,0.00e+00,8.80e-01,
832,1.60e-01,9.60e-01,
833,0.00e+00,3.20e-01,
834,1.60e-01,4.80e-01,
835,0.00e+00,1.60e-01,
836,0.00e+00,3.20e-01,
837,5.60e-01,8.00e-02,
838,5.60e-01,2.40e-01,
839,2.16e+00,8.00e-02,
840,2.16e+00,8.00e-02,
841,3.20e+00,1.60e-01,
842,3.20e+00,8.00e-02,
843,3.92e+00,1.44e+00,
844,3.76e+00,1.36e+00,
845,4.24e+00,2.88e+00,
846,4.16e+00,2.80e+00,
847,4.56e+00,3.68e+00,
848,4.48e+00,3.60e+00,
849,4.72e+00,4.24e+00,
850,4.64e+00,4.16e+00,
851,4.88e+00,4.56e+00,
852,4.72e+00,4.48e+00,
853,4.88e+00,4.72e+00,
854,4.80e+00,4.64e+00,
855,4.96e+00,4.88e+00,
856,4.96e+00,4.80e+00,
857,4.88e+00,4.96e+00,
858,4.88e+00,4.96e+00,
859,5.04e+00,4.80e+00,
860,4.88e+00,4.88e+00,
861,5.04e+00,5.04e+00,
862,4.88e+00,5.04e+00,
863,5.04e+00,4.88e+00,
864,4.88e+00,5.04e+00,
865,5.04e+00,4.88e+00,
866,5.04e+00,5.04e+00,
867,4.96e+00,4.96e+00,
868,5.04e+00,5.04e+00,
869,4.96e+00,4.96e+00,
870,5.04e+00,4.96e+00,
